Extract and Tidy Canadian Hydrometric Data • rOpenSci: tidyhydat
…
To use many of the functions in the tidyhydat package you will need to download a version of the HYDAT database, Environment and Climate Change Canada’s database of historical hydrometric data then tell R where to find the database. Conveniently tidyhydat does all this for you via:

download_hydat()

This downloads (with your permission) the most recent version of HYDAT and then saves it in a location on your computer where tidyhydat’s function will look for it. Do be patient though as this can take a long time! To see where HYDAT was saved you can run hy_default_db(). Now that you have HYDAT downloaded and ready to go, you are all set to begin looking at Canadian hydrometric data.

Real-time

To download real-time data using the datamart we can use approximately the same conventions discussed above. Using realtime_dd() we can easily select specific stations by supplying a station of interest:

realtime_dd(station_number = "08LG006")
#>   Queried on: 2021-06-30 23:09:36 (UTC)
#>   Date range: 2021-05-31 to 2021-06-30 
#> # A tibble: 17,604 x 8
#>    STATION_NUMBER PROV_TERR_STATE_LOC Date                Parameter Value Grade
#>    <chr>          <chr>               <dttm>              <chr>     <dbl> <chr>
#>  1 08LG006        BC                  2021-05-31 08:00:00 Flow       65.3 <NA> 
#>  2 08LG006        BC                  2021-05-31 08:05:00 Flow       65.4 <NA> 
#>  3 08LG006        BC                  2021-05-31 08:10:00 Flow       65.4 <NA> 
#>  4 08LG006        BC                  2021-05-31 08:15:00 Flow       65.5 <NA> 
#>  5 08LG006        BC                  2021-05-31 08:20:00 Flow       65.5 <NA> 
#>  6 08LG006        BC                  2021-05-31 08:25:00 Flow       65.6 <NA> 
#>  7 08LG006        BC                  2021-05-31 08:30:00 Flow       65.6 <NA> 
#>  8 08LG006        BC                  2021-05-31 08:35:00 Flow       65.6 <NA> 
#>  9 08LG006        BC                  2021-05-31 08:40:00 Flow       65.6 <NA> 
#> 10 08LG006        BC                  2021-05-31 08:45:00 Flow       65.6 <NA> 
#> # ... with 17,594 more rows, and 2 more variables: Symbol <chr>, Code <chr>
…
