tidyhydat: An Introduction • tidyhydat
…
Most functions in tidyhydat follow a common argument structure. We will use the hy_daily_flows() function for the following examples though the same approach applies to most functions in the package (See ls("package:tidyhydat") for a list of exported objects). Much of the functionality of tidyhydat originates with the choice of hydrometric stations that you are interested in. A user will often find themselves creating vectors of station numbers. There are several ways to do this.

The simplest case is if you would like to extract only station. You can supply this directly to the station_number argument:

hy_daily_flows(station_number = "08LA001")

##   Queried from version of HYDAT released on 2023-11-20
##    Observations:                      31,351
##    Measurement flags:                 6,166
##    Parameter(s):                      Flow
##    Date range:                        1914-01-01 to 2021-12-31 
##    Station(s) returned:               1
##    Stations requested but not returned: 
##     All stations returned.
## # A tibble: 31,351 × 5
##    STATION_NUMBER Date       Parameter Value Symbol
##    <chr>          <date>     <chr>     <dbl> <chr> 
##  1 08LA001        1914-01-01 Flow        144 <NA>  
##  2 08LA001        1914-01-02 Flow        144 <NA>  
##  3 08LA001        1914-01-03 Flow        144 <NA>  
##  4 08LA001        1914-01-04 Flow        140 <NA>  
##  5 08LA001        1914-01-05 Flow        140 <NA>  
##  6 08LA001        1914-01-06 Flow        136 <NA>  
##  7 08LA001        1914-01-07 Flow        136 <NA>  
##  8 08LA001        1914-01-08 Flow        140 <NA>  
##  9 08LA001        1914-01-09 Flow        140 <NA>  
## 10 08LA001        1914-01-10 Flow        140 <NA>  
## # ℹ 31,341 more rows
…
## [1] "01CA003" "01CB002" "01CB004" "01CB018" "01CC002"
## [6] "01CC005" "01CC010" "01CC011" "01CD005"

hy_daily_flows(station_number = PEI_stns)

##   Queried from version of HYDAT released on 2023-11-20
##    Observations:                      117,530
##    Measurement flags:                 20,867
##    Parameter(s):                      Flow
##    Date range:                        1961-08-01 to 2021-12-31 
##    Station(s) returned:               9
##    Stations requested but not returned: 
##     All stations returned.
## # A tibble: 117,530 × 5
##    STATION_NUMBER Date       Parameter Value Symbol
##    <chr>          <date>     <chr>     <dbl> <chr> 
##  1 01CA003        1961-08-01 Flow         NA <NA>  
##  2 01CB002        1961-08-01 Flow         NA <NA>  
##  3 01CA003        1961-08-02 Flow         NA <NA>  
##  4 01CB002        1961-08-02 Flow         NA <NA>  
##  5 01CA003        1961-08-03 Flow         NA <NA>  
##  6 01CB002        1961-08-03 Flow         NA <NA>  
##  7 01CA003        1961-08-04 Flow         NA <NA>  
##  8 01CB002        1961-08-04 Flow         NA <NA>  
##  9 01CA003        1961-08-05 Flow         NA <NA>  
## 10 01CB002        1961-08-05 Flow         NA <NA>  
## # ℹ 117,520 more rows
We can also merge our station choice and data extraction into one unified pipe which accomplishes a single goal. For example if for some reason we wanted all the stations in Canada that had the name “Canada” in them we unify that selection and data extraction process into a single pipe:

search_stn_name("canada") %>%
  pull_station_number() %>%
  hy_daily_flows()

##   Queried from version of HYDAT released on 2023-11-20
##    Observations:                      87,669
##    Measurement flags:                 26,754
##    Parameter(s):                      Flow
##    Date range:                        1918-08-01 to 2023-05-31 
##    Station(s) returned:               7
##    Stations requested but not returned: 
##     All stations returned.
## # A tibble: 87,669 × 5
##    STATION_NUMBER Date       Parameter Value Symbol
##    <chr>          <date>     <chr>     <dbl> <chr> 
##  1 01AK001        1918-08-01 Flow      NA    <NA>  
##  2 01AK001        1918-08-02 Flow      NA    <NA>  
##  3 01AK001        1918-08-03 Flow      NA    <NA>  
##  4 01AK001        1918-08-04 Flow      NA    <NA>  
##  5 01AK001        1918-08-05 Flow      NA    <NA>  
##  6 01AK001        1918-08-06 Flow      NA    <NA>  
##  7 01AK001        1918-08-07 Flow       1.78 <NA>  
##  8 01AK001        1918-08-08 Flow       1.78 <NA>  
##  9 01AK001        1918-08-09 Flow       1.5  <NA>  
## 10 01AK001        1918-08-10 Flow       1.78 <NA>  
## # ℹ 87,659 more rows
…
Similarly, search_stn_number() can be useful if you are interested in all stations from the 08MF sub-sub-drainage:

search_stn_number("08MF")

## # A tibble: 54 × 5
##    STATION_NUMBER STATION_NAME  PROV_TERR_STATE_LOC LATITUDE
##    <chr>          <chr>         <chr>                  <dbl>
##  1 08MF005        FRASER RIVER… BC                      49.4
##  2 08MF040        FRASER RIVER… BC                      50.6
##  3 08MF062        COQUIHALLA R… BC                      49.5
##  4 08MF065        NAHATLATCH R… BC                      50.0
##  5 08MF068        COQUIHALLA R… BC                      49.4
##  6 08MF075        FRASER RIVER… BC                      49.2
##  7 08MF001        ANDERSON RIV… BC                      49.8
##  8 08MF002        BOULDER CREE… BC                      49.3
##  9 08MF003        COQUIHALLA R… BC                      49.4
## 10 08MF004        FRASER RIVER… BC                      50.2
## # ℹ 44 more rows
## # ℹ 1 more variable: LONGITUDE <dbl>
…
