Two examples of using tidyhydat • tidyhydat
…
longest_record_data <- hy_stn_data_range() %>%
  filter(DATA_TYPE == "Q", RECORD_LENGTH == max(RECORD_LENGTH)) %>%
  pull_station_number() %>%
  hy_daily_flows()

Let’s break this down line by line to understand how tidyhydat uses tidy tools. First we are interested in getting data on record length:

hy_stn_data_range()

##   Queried from version of HYDAT released on 2023-11-20
##    Observations:                      12,125
##    Station(s) returned:               7,963
##    Stations requested but not returned: 
##     All stations returned.
## # A tibble: 12,125 × 6
##    STATION_NUMBER DATA_TYPE SED_DATA_TYPE Year_from Year_to
##    <chr>          <chr>     <chr>             <int>   <int>
##  1 01AA002        Q         <NA>               1967    1977
##  2 01AD001        Q         <NA>               1918    1997
##  3 01AD002        Q         <NA>               1926    2021
##  4 01AD003        H         <NA>               2011    2022
##  5 01AD003        Q         <NA>               1951    2022
##  6 01AD004        H         <NA>               1980    2021
##  7 01AD004        Q         <NA>               1968    1979
##  8 01AD005        H         <NA>               1966    1974
##  9 01AD008        H         <NA>               1972    1974
## 10 01AD009        H         <NA>               1973    1982
## # ℹ 12,115 more rows
## # ℹ 1 more variable: RECORD_LENGTH <int>
…
